Biostat 203B Homework 2
…
##    user  system elapsed 
##  18.199   6.390  19.241

labevents %>%
 as_tibble() %>%
 print(width = Inf)

## # A tibble: 26,941,051 x 5
##    subject_id  hadm_id itemid charttime           valuenum
##         <int>    <int>  <int> <chr>                  <dbl>
##  1   12457441 21673651  50861 2135-08-16 23:45:00     25  
##  2   12457441 21673651  50862 2135-08-16 23:45:00      3.4
##  3   12457441 21673651  50863 2135-08-16 23:45:00    103  
##  4   12457441 21673651  50868 2135-08-16 23:45:00     13  
##  5   12457441 21673651  50878 2135-08-16 23:45:00    104  
##  6   12457441 21673651  50882 2135-08-16 23:45:00     28  
##  7   12457441 21673651  50883 2135-08-16 23:45:00      2.1
##  8   12457441 21673651  50884 2135-08-16 23:45:00      2  
##  9   12457441 21673651  50885 2135-08-16 23:45:00      4.1
## 10   12457441 21673651  50893 2135-08-16 23:45:00      7.5
## #  with 26,941,041 more rows
…
